<svg width="24" height="24" viewBox="0 0 24 24" fill="none" xmlns="http://www.w3.org/2000/svg">
<path fill-rule="evenodd" clip-rule="evenodd" d="M16.9116 9.61048C16.9116 13.3018 13.8037 16.2797 9.98874 16.2797C6.17372 16.2797 3.06586 13.3018 3.06586 9.61048C3.06586 5.91909 6.17372 2.94121 9.98874 2.94121C13.8037 2.94121 16.9116 5.91909 16.9116 9.61048ZM15.3435 17.7248C13.796 18.6721 11.9589 19.221 9.98874 19.221C4.47211 19.221 0 14.9182 0 9.61048C0 4.30277 4.47211 0 9.98874 0C15.5054 0 19.9774 4.30277 19.9774 9.61048C19.9774 11.9581 19.1026 14.1092 17.6494 15.7782L24 21.9131L21.8395 24L15.3435 17.7248Z" fill="black"/>
</svg>
